module codeberg.org/gruf/go-xgbutil

go 1.17

require (
	codeberg.org/gruf/go-xgb v1.0.1
	github.com/BurntSushi/freetype-go v0.0.0-20160129220410-b763ddbfe298
	github.com/BurntSushi/graphics-go v0.0.0-20160129215708-b43f31a4a966
)
